…
# distrviz

<!-- badges: start -->
<!-- badges: end -->

The goal of distrviz is to vizualize (hopefully) every distribution that
is available in the [`{distr6}`](https://github.com/xoopR/distr6)
package.

## Imlemented distributions

Currently, these distributions are supported.

    #> # A tibble: 39 × 4
    #>    Distribution         Type       Variate    Available
    #>    <chr>                <chr>      <chr>      <lgl>    
    #>  1 Arcsine              continuous univariate TRUE     
    #>  2 Bernoulli            discrete   univariate TRUE     
    #>  3 Beta                 continuous univariate TRUE     
    #>  4 BetaNoncentral       continuous univariate TRUE     
    #>  5 Binomial             discrete   univariate TRUE     
    #>  6 Cauchy               continuous univariate TRUE     
    #>  7 ChiSquared           continuous univariate TRUE     
    #>  8 ChiSquaredNoncentral continuous univariate TRUE     
    #>  9 Degenerate           discrete   univariate TRUE     
    #> 10 DiscreteUniform      discrete   univariate TRUE     
    #> # ℹ 29 more rows
…
